#FIG 3.2  Produced by xfig version 3.2.5c
Landscape
Center
Metric
A4      
100.00
Single
-2
1200 2
2 1 0 1 0 7 50 -1 -1 0.000 0 0 -1 1 0 2
	1 1 1.00 60.00 120.00
	 0 4500 4950 4500
2 1 0 1 0 7 50 -1 -1 0.000 0 0 -1 1 0 2
	1 1 1.00 60.00 120.00
	 0 4500 0 0
2 1 1 1 0 7 50 -1 -1 4.000 0 0 -1 0 0 2
	 2520 3825 4770 225
2 1 0 1 0 7 50 -1 -1 0.000 0 0 -1 0 0 2
	 2430 3825 2610 3825
2 1 0 1 0 7 50 -1 -1 0.000 0 0 -1 0 0 2
	 2520 3735 2520 3915
2 1 1 1 0 7 50 -1 -1 4.000 0 0 -1 0 0 2
	 2533 3847 283 247
2 1 0 1 0 7 50 -1 -1 0.000 0 0 -1 0 0 2
	 2430 2250 2610 2250
2 1 0 1 0 7 50 -1 -1 0.000 0 0 -1 0 0 2
	 2520 2160 2520 2340
2 1 0 1 0 7 50 -1 -1 0.000 0 0 -1 0 0 2
	 2520 2250 2970 0
2 1 2 1 0 7 50 -1 -1 3.000 0 0 -1 0 0 2
	 2520 4500 2520 0
2 1 1 1 0 7 50 -1 -1 4.000 0 0 -1 0 0 2
	 2520 2250 0 855
2 1 0 1 0 7 50 -1 -1 0.000 0 0 -1 0 0 2
	 2520 3420 2520 3600
2 1 0 1 0 7 50 -1 -1 0.000 0 0 -1 0 0 2
	 2430 3510 2610 3510
2 1 1 1 0 7 50 -1 -1 4.000 0 0 -1 0 0 2
	 2520 3510 1755 0
2 1 0 1 0 7 50 -1 -1 0.000 0 0 -1 0 0 2
	 2520 2250 2070 0
2 1 1 1 0 7 50 -1 -1 4.000 0 0 -1 0 0 2
	 2520 3510 3285 0
2 1 1 1 0 7 50 -1 -1 4.000 0 0 -1 0 0 2
	 2520 2250 5040 855
4 1 0 50 -1 0 18 0.0000 6 255 450 2520 4770 $b$\001
4 1 0 50 -1 0 18 0.0000 6 270 1455 1440 180 $u_3,\\vl_3$\001
4 1 0 50 -1 0 18 0.0000 6 270 1455 2565 45 $u_2,\\vl_3$\001
4 1 0 50 -1 0 18 0.0000 6 270 1455 360 1485 $u_1,\\vl_1$\001
4 1 0 50 -1 0 18 0.0000 6 270 1455 990 720 $u_2,\\vl_2$\001
